* Automatically generated header (sfdc 1.12)! Do not edit!
     IFND  LVO_TRINITY_LIB_I
LVO_TRINITY_LIB_I   SET   1

_LVOTrinityFind     EQU   -30
_LVOEnumAudioCore     EQU   -36

     ENDC  * LVO_TRINITY_LIB_I
